projeto_vhdl/simulation/qsim/pacman.msim.vcd
$comment
	File created using the following command:
		vcd file pacman.msim.vcd -direction
$end
$date
	Sun Mar 16 12:55:26 2025
$end
$version
	ModelSim Version 10.1d
$end
$timescale
	1ps
$end
$scope module video_controller_vlg_vec_tst $end
$var reg 1 ! clk $end
$var reg 1 " reset $end
$var wire 1 # pixel_x [10] $end
$var wire 1 $ pixel_x [9] $end
$var wire 1 % pixel_x [8] $end
$var wire 1 & pixel_x [7] $end
$var wire 1 ' pixel_x [6] $end
$var wire 1 ( pixel_x [5] $end
$var wire 1 ) pixel_x [4] $end
$var wire 1 * pixel_x [3] $end
$var wire 1 + pixel_x [2] $end
$var wire 1 , pixel_x [1] $end
$var wire 1 - pixel_x [0] $end
$var wire 1 . pixel_y [9] $end
$var wire 1 / pixel_y [8] $end
$var wire 1 0 pixel_y [7] $end
$var wire 1 1 pixel_y [6] $end
$var wire 1 2 pixel_y [5] $end
$var wire 1 3 pixel_y [4] $end
$var wire 1 4 pixel_y [3] $end
$var wire 1 5 pixel_y [2] $end
$var wire 1 6 pixel_y [1] $end
$var wire 1 7 pixel_y [0] $end
$var wire 1 8 vga_HS $end
$var wire 1 9 vga_VS $end
$var wire 1 : sampler $end
$scope module i1 $end
$var wire 1 ; gnd $end
$var wire 1 < vcc $end
$var wire 1 = unknown $end
$var tri1 1 > devclrn $end
$var tri1 1 ? devpor $end
$var tri1 1 @ devoe $end
$var wire 1 A H_Count[0]~11_combout $end
$var wire 1 B V_Count[7]~25_combout $end
$var wire 1 C HCounter~1_combout $end
$var wire 1 D clk~combout $end
$var wire 1 E clk~clkctrl_outclk $end
$var wire 1 F H_Count[0]~12 $end
$var wire 1 G H_Count[1]~14 $end
$var wire 1 H H_Count[2]~16 $end
$var wire 1 I H_Count[3]~18 $end
$var wire 1 J H_Count[4]~19_combout $end
$var wire 1 K reset~combout $end
$var wire 1 L reset~clkctrl_outclk $end
$var wire 1 M LessThan0~0_combout $end
$var wire 1 N H_Count[7]~25_combout $end
$var wire 1 O LessThan5~4_combout $end
$var wire 1 P LessThan0~1_combout $end
$var wire 1 Q H_Count[4]~20 $end
$var wire 1 R H_Count[5]~22 $end
$var wire 1 S H_Count[6]~23_combout $end
$var wire 1 T H_Count[6]~24 $end
$var wire 1 U H_Count[7]~26 $end
$var wire 1 V H_Count[8]~27_combout $end
$var wire 1 W H_Count[8]~28 $end
$var wire 1 X H_Count[9]~29_combout $end
$var wire 1 Y H_Count[9]~30 $end
$var wire 1 Z H_Count[10]~31_combout $end
$var wire 1 [ LessThan5~2_combout $end
$var wire 1 \ H_Count[3]~17_combout $end
$var wire 1 ] LessThan5~3_combout $end
$var wire 1 ^ LessThan5~5_combout $end
$var wire 1 _ vga_hsync~regout $end
$var wire 1 ` V_Count[0]~12 $end
$var wire 1 a V_Count[1]~13_combout $end
$var wire 1 b V_Count[1]~14 $end
$var wire 1 c V_Count[2]~15_combout $end
$var wire 1 d V_Count[2]~16 $end
$var wire 1 e V_Count[3]~18 $end
$var wire 1 f V_Count[4]~19_combout $end
$var wire 1 g V_Count[4]~20 $end
$var wire 1 h V_Count[5]~21_combout $end
$var wire 1 i LessThan3~2_combout $end
$var wire 1 j V_Count[5]~22 $end
$var wire 1 k V_Count[6]~23_combout $end
$var wire 1 l V_Count[6]~24 $end
$var wire 1 m V_Count[7]~26 $end
$var wire 1 n V_Count[8]~27_combout $end
$var wire 1 o V_Count[8]~28 $end
$var wire 1 p V_Count[9]~29_combout $end
$var wire 1 q LessThan3~0_combout $end
$var wire 1 r V_Count[0]~11_combout $end
$var wire 1 s LessThan3~1_combout $end
$var wire 1 t LessThan4~0_combout $end
$var wire 1 u LessThan6~0_combout $end
$var wire 1 v V_Count[3]~17_combout $end
$var wire 1 w V_Count[9]~30 $end
$var wire 1 x V_Count[10]~31_combout $end
$var wire 1 y LessThan6~1_combout $end
$var wire 1 z LessThan6~2_combout $end
$var wire 1 { vga_vsync~regout $end
$var wire 1 | signal_pixel_x[0]~11_combout $end
$var wire 1 } H_Count[5]~21_combout $end
$var wire 1 ~ HCounter~0_combout $end
$var wire 1 !! HCounter~2_combout $end
$var wire 1 "! H_Count[2]~15_combout $end
$var wire 1 #! H_Count[1]~13_combout $end
$var wire 1 $! HCounter~3_combout $end
$var wire 1 %! HCounter~4_combout $end
$var wire 1 &! HCounter~5_combout $end
$var wire 1 '! HCounter~6_combout $end
$var wire 1 (! signal_pixel_x[0]~12 $end
$var wire 1 )! signal_pixel_x[1]~13_combout $end
$var wire 1 *! signal_pixel_x[1]~14 $end
$var wire 1 +! signal_pixel_x[2]~15_combout $end
$var wire 1 ,! signal_pixel_x[2]~16 $end
$var wire 1 -! signal_pixel_x[3]~17_combout $end
$var wire 1 .! signal_pixel_x[3]~18 $end
$var wire 1 /! signal_pixel_x[4]~19_combout $end
$var wire 1 0! signal_pixel_x[4]~20 $end
$var wire 1 1! signal_pixel_x[5]~21_combout $end
$var wire 1 2! signal_pixel_x[5]~22 $end
$var wire 1 3! signal_pixel_x[6]~23_combout $end
$var wire 1 4! signal_pixel_x[6]~24 $end
$var wire 1 5! signal_pixel_x[7]~25_combout $end
$var wire 1 6! signal_pixel_x[7]~26 $end
$var wire 1 7! signal_pixel_x[8]~27_combout $end
$var wire 1 8! signal_pixel_x[8]~28 $end
$var wire 1 9! signal_pixel_x[9]~29_combout $end
$var wire 1 :! signal_pixel_x[9]~30 $end
$var wire 1 ;! signal_pixel_x[10]~31_combout $end
$var wire 1 <! signal_pixel_y[0]~10_combout $end
$var wire 1 =! HCounter~7_combout $end
$var wire 1 >! signal_pixel_y[0]~11 $end
$var wire 1 ?! signal_pixel_y[1]~12_combout $end
$var wire 1 @! signal_pixel_y[1]~13 $end
$var wire 1 A! signal_pixel_y[2]~14_combout $end
$var wire 1 B! signal_pixel_y[2]~15 $end
$var wire 1 C! signal_pixel_y[3]~16_combout $end
$var wire 1 D! signal_pixel_y[3]~17 $end
$var wire 1 E! signal_pixel_y[4]~18_combout $end
$var wire 1 F! signal_pixel_y[4]~19 $end
$var wire 1 G! signal_pixel_y[5]~20_combout $end
$var wire 1 H! signal_pixel_y[5]~21 $end
$var wire 1 I! signal_pixel_y[6]~22_combout $end
$var wire 1 J! signal_pixel_y[6]~23 $end
$var wire 1 K! signal_pixel_y[7]~24_combout $end
$var wire 1 L! signal_pixel_y[7]~25 $end
$var wire 1 M! signal_pixel_y[8]~26_combout $end
$var wire 1 N! signal_pixel_y[8]~27 $end
$var wire 1 O! signal_pixel_y[9]~28_combout $end
$var wire 1 P! signal_pixel_y [9] $end
$var wire 1 Q! signal_pixel_y [8] $end
$var wire 1 R! signal_pixel_y [7] $end
$var wire 1 S! signal_pixel_y [6] $end
$var wire 1 T! signal_pixel_y [5] $end
$var wire 1 U! signal_pixel_y [4] $end
$var wire 1 V! signal_pixel_y [3] $end
$var wire 1 W! signal_pixel_y [2] $end
$var wire 1 X! signal_pixel_y [1] $end
$var wire 1 Y! signal_pixel_y [0] $end
$var wire 1 Z! signal_pixel_x [10] $end
$var wire 1 [! signal_pixel_x [9] $end
$var wire 1 \! signal_pixel_x [8] $end
$var wire 1 ]! signal_pixel_x [7] $end
$var wire 1 ^! signal_pixel_x [6] $end
$var wire 1 _! signal_pixel_x [5] $end
$var wire 1 `! signal_pixel_x [4] $end
$var wire 1 a! signal_pixel_x [3] $end
$var wire 1 b! signal_pixel_x [2] $end
$var wire 1 c! signal_pixel_x [1] $end
$var wire 1 d! signal_pixel_x [0] $end
$var wire 1 e! V_Count [10] $end
$var wire 1 f! V_Count [9] $end
$var wire 1 g! V_Count [8] $end
$var wire 1 h! V_Count [7] $end
$var wire 1 i! V_Count [6] $end
$var wire 1 j! V_Count [5] $end
$var wire 1 k! V_Count [4] $end
$var wire 1 l! V_Count [3] $end
$var wire 1 m! V_Count [2] $end
$var wire 1 n! V_Count [1] $end
$var wire 1 o! V_Count [0] $end
$var wire 1 p! H_Count [10] $end
$var wire 1 q! H_Count [9] $end
$var wire 1 r! H_Count [8] $end
$var wire 1 s! H_Count [7] $end
$var wire 1 t! H_Count [6] $end
$var wire 1 u! H_Count [5] $end
$var wire 1 v! H_Count [4] $end
$var wire 1 w! H_Count [3] $end
$var wire 1 x! H_Count [2] $end
$var wire 1 y! H_Count [1] $end
$var wire 1 z! H_Count [0] $end
$upscope $end
$upscope $end
$enddefinitions $end
#0
$dumpvars
0!
0"
0-
0,
0+
0*
0)
0(
0'
0&
0%
0$
0#
07
06
05
04
03
02
01
00
0/
0.
18
19
x:
0;
1<
x=
1>
1?
1@
1A
0B
0C
0D
0E
0F
1G
0H
1I
0J
0K
0L
1M
0N
1O
0P
0Q
1R
0S
0T
1U
0V
0W
0X
1Y
0Z
1[
0\
1]
0^
0_
0`
0a
1b
0c
0d
1e
0f
0g
0h
1i
1j
0k
0l
1m
0n
0o
0p
1q
1r
1s
0t
1u
0v
1w
0x
1y
0z
0{
1|
0}
0~
0!!
0"!
0#!
0$!
0%!
1&!
1'!
0(!
0)!
1*!
0+!
0,!
0-!
1.!
0/!
00!
01!
12!
03!
04!
05!
16!
07!
08!
09!
1:!
0;!
1<!
1=!
0>!
0?!
1@!
0A!
0B!
0C!
1D!
0E!
0F!
0G!
1H!
0I!
0J!
0K!
1L!
0M!
0N!
0O!
0Y!
0X!
0W!
0V!
0U!
0T!
0S!
0R!
0Q!
0P!
0d!
0c!
0b!
0a!
0`!
0_!
0^!
0]!
0\!
0[!
0Z!
0o!
0n!
0m!
0l!
0k!
0j!
0i!
0h!
0g!
0f!
0e!
0z!
0y!
0x!
0w!
0v!
0u!
0t!
0s!
0r!
0q!
0p!
$end
#500
1!
1D
1E
0:
1z!
1F
0A
1#!
#1000
0!
0D
0E
1:
#1500
1!
1D
1E
0:
1y!
0z!
0G
0#!
0F
1A
1"!
1G
1#!
0"!
#2000
0!
0D
0E
1:
#2500
1!
1D
1E
0:
1z!
1F
0A
0G
0#!
1"!
#3000
0!
0D
0E
1:
#3500
1!
1D
1E
0:
0y!
1x!
0z!
1G
1#!
1H
0"!
0F
1A
0H
1"!
1\
0#!
0\
#4000
0!
0D
0E
1:
#4500
1!
1D
1E
0:
1z!
1$!
1C
1F
0A
1#!
#5000
0!
0D
0E
1:
#5500
1!
1D
1E
0:
1y!
0z!
0G
0#!
0F
1A
1H
0"!
1G
1#!
1\
0H
1"!
0\
#6000
0!
0D
0E
1:
#6500
1!
1D
1E
0:
1z!
1F
0A
0G
0#!
1H
0"!
1\
#7000
0!
0D
0E
1:
#7500
1!
1D
1E
0:
0y!
0x!
1w!
0z!
0$!
1G
1#!
0H
1"!
0I
0\
0F
1A
0"!
1I
1\
1J
0#!
0J
#8000
0!
0D
0E
1:
#8500
1!
1D
1E
0:
1z!
1F
0A
1#!
#9000
0!
0D
0E
1:
#9500
1!
1D
1E
0:
1y!
0z!
0G
0#!
0F
1A
1"!
1G
1#!
0"!
#10000
0!
0D
0E
1:
#10500
1!
1D
1E
0:
1z!
1F
0A
0G
0#!
1"!
#11000
0!
0D
0E
1:
#11500
1!
1D
1E
0:
0y!
1x!
0z!
1G
1#!
0]
1H
0"!
0F
1A
0H
1"!
0I
0\
0#!
1I
1\
1J
0J
#12000
0!
0D
0E
1:
#12500
1!
1D
1E
0:
1z!
1$!
1F
0A
1#!
#13000
0!
0D
0E
1:
#13500
1!
1D
1E
0:
1y!
0z!
0G
0#!
0F
1A
1H
0"!
1G
1#!
0I
0\
0H
1"!
1J
1I
1\
0J
#14000
0!
0D
0E
1:
#14500
1!
1D
1E
0:
1z!
1F
0A
0G
0#!
1H
0"!
0I
0\
1J
#15000
0!
0D
0E
1:
#15500
1!
1D
1E
0:
0y!
0x!
0w!
1v!
0z!
0$!
1G
1#!
0C
0H
1"!
1I
1\
0M
1Q
0J
0F
1A
0"!
0\
0Q
1J
1}
0#!
0}
#16000
0!
0D
0E
1:
#16500
1!
1D
1E
0:
1z!
1F
0A
1#!
#17000
0!
0D
0E
1:
#17500
1!
1D
1E
0:
1y!
0z!
0G
0#!
0F
1A
1"!
1G
1#!
0"!
#18000
0!
0D
0E
1:
#18500
1!
1D
1E
0:
1z!
1F
0A
0G
0#!
1"!
#19000
0!
0D
0E
1:
#19500
1!
1D
1E
0:
0y!
1x!
0z!
1G
1#!
1H
0"!
0F
1A
0H
1"!
1\
0#!
0\
#20000
0!
0D
0E
1:
#20500
1!
1D
1E
0:
1z!
1$!
1C
1F
0A
1#!
#21000
0!
0D
0E
1:
#21500
1!
1D
1E
0:
1y!
0z!
0G
0#!
0F
1A
1H
0"!
1G
1#!
1\
0H
1"!
0\
#22000
0!
0D
0E
1:
#22500
1!
1D
1E
0:
1z!
1F
0A
0G
0#!
1H
0"!
1\
#23000
0!
0D
0E
1:
#23500
1!
1D
1E
0:
0y!
0x!
1w!
0z!
0$!
1G
1#!
0H
1"!
0I
0\
0F
1A
0"!
1I
1\
1Q
0J
0#!
0Q
1J
1}
0}
#24000
0!
0D
0E
1:
#24500
1!
1D
1E
0:
1z!
1F
0A
1#!
#25000
0!
0D
0E
1:
#25500
1!
1D
1E
0:
1y!
0z!
0G
0#!
0F
1A
1"!
1G
1#!
0"!
#26000
0!
0D
0E
1:
#26500
1!
1D
1E
0:
1z!
1F
0A
0G
0#!
1"!
#27000
0!
0D
0E
1:
#27500
1!
1D
1E
0:
0y!
1x!
0z!
1G
1#!
1H
0"!
0F
1A
0H
1"!
0I
0\
0#!
1I
1\
1Q
0J
0Q
1J
1}
0}
#28000
0!
0D
0E
1:
#28500
1!
1D
1E
0:
1z!
1$!
1F
0A
1#!
#29000
0!
0D
0E
1:
#29500
1!
1D
1E
0:
1y!
0z!
0G
0#!
0F
1A
1H
0"!
1G
1#!
0I
0\
0H
1"!
1Q
0J
1I
1\
1}
0Q
1J
0}
#30000
0!
0D
0E
1:
#30500
1!
1D
1E
0:
1z!
1F
0A
0G
0#!
1H
0"!
0I
0\
1Q
0J
1}
#31000
0!
0D
0E
1:
#31500
1!
1D
1E
0:
0y!
0x!
1u!
0w!
0v!
0z!
0$!
1G
1#!
0C
1]
0H
1"!
0R
0}
1I
1\
0Q
1J
0F
1A
0"!
0\
1S
0J
1R
1}
0#!
0S
#32000
0!
0D
0E
1:
#32500
1!
1D
1E
0:
1z!
1F
0A
1#!
#33000
0!
0D
0E
1:
#33500
1!
1D
1E
0:
1y!
0z!
0G
0#!
0F
1A
1"!
1G
1#!
0"!
#34000
0!
0D
0E
1:
#34500
1!
1D
1E
0:
1z!
1F
0A
0G
0#!
1"!
#35000
0!
0D
0E
1:
#35500
1!
1D
1E
0:
0y!
1x!
0z!
1G
1#!
1H
0"!
0F
1A
0H
1"!
1\
0#!
0\
#36000
0!
0D
0E
1:
#36500
1!
1D
1E
0:
1z!
1$!
1C
1F
0A
1#!
#37000
0!
0D
0E
1:
#37500
1!
1D
1E
0:
1y!
0z!
0G
0#!
0F
1A
1H
0"!
1G
1#!
1\
0H
1"!
0\
#38000
0!
0D
0E
1:
#38500
1!
1D
1E
0:
1z!
1F
0A
0G
0#!
1H
0"!
1\
#39000
0!
0D
0E
1:
#39500
1!
1D
1E
0:
0y!
0x!
1w!
0z!
0$!
1G
1#!
0H
1"!
0I
0\
0F
1A
0"!
1I
1\
1J
0#!
0J
#40000
0!
0D
0E
1:
#40500
1!
1D
1E
0:
1z!
1F
0A
1#!
#41000
0!
0D
0E
1:
#41500
1!
1D
1E
0:
1y!
0z!
0G
0#!
0F
1A
1"!
1G
1#!
0"!
#42000
0!
0D
0E
1:
#42500
1!
1D
1E
0:
1z!
1F
0A
0G
0#!
1"!
#43000
0!
0D
0E
1:
#43500
1!
1D
1E
0:
0y!
1x!
0z!
1G
1#!
0]
1H
0"!
0F
1A
0H
1"!
0I
0\
0#!
1I
1\
1J
0J
#44000
0!
0D
0E
1:
#44500
1!
1D
1E
0:
1z!
1$!
1F
0A
1#!
#45000
0!
0D
0E
1:
#45500
1!
1D
1E
0:
1y!
0z!
0G
0#!
0F
1A
1H
0"!
1G
1#!
0I
0\
0H
1"!
1J
1I
1\
0J
#46000
0!
0D
0E
1:
#46500
1!
1D
1E
0:
1z!
1F
0A
0G
0#!
1H
0"!
0I
0\
1J
#47000
0!
0D
0E
1:
#47500
1!
1D
1E
0:
0y!
0x!
0w!
1v!
0z!
0$!
1G
1#!
0C
0H
1"!
1I
1\
1Q
0J
0F
1A
0"!
0\
0Q
1J
0R
0}
0#!
1R
1}
1S
0S
#48000
0!
0D
0E
1:
#48500
1!
1D
1E
0:
1z!
1F
0A
1#!
#49000
0!
0D
0E
1:
#49500
1!
1D
1E
0:
1y!
0z!
0G
0#!
0F
1A
1"!
1G
1#!
0"!
#50000
0!
0D
0E
1:
#50500
1!
1D
1E
0:
1z!
1F
0A
0G
0#!
1"!
#51000
0!
0D
0E
1:
#51500
1!
1D
1E
0:
0y!
1x!
0z!
1G
1#!
1H
0"!
0F
1A
0H
1"!
1\
0#!
0\
#52000
0!
0D
0E
1:
#52500
1!
1D
1E
0:
1z!
1$!
1C
1F
0A
1#!
#53000
0!
0D
0E
1:
#53500
1!
1D
1E
0:
1y!
0z!
0G
0#!
0F
1A
1H
0"!
1G
1#!
1\
0H
1"!
0\
#54000
0!
0D
0E
1:
#54500
1!
1D
1E
0:
1z!
1F
0A
0G
0#!
1H
0"!
1\
#55000
0!
0D
0E
1:
#55500
1!
1D
1E
0:
0y!
0x!
1w!
0z!
0$!
1G
1#!
0H
1"!
0I
0\
0F
1A
0"!
1I
1\
1Q
0J
0#!
0Q
1J
0R
0}
1R
1}
1S
0S
#56000
0!
0D
0E
1:
#56500
1!
1D
1E
0:
1z!
1F
0A
1#!
#57000
0!
0D
0E
1:
#57500
1!
1D
1E
0:
1y!
0z!
0G
0#!
0F
1A
1"!
1G
1#!
0"!
#58000
0!
0D
0E
1:
#58500
1!
1D
1E
0:
1z!
1F
0A
0G
0#!
1"!
#59000
0!
0D
0E
1:
#59500
1!
1D
1E
0:
0y!
1x!
0z!
1G
1#!
1H
0"!
0F
1A
0H
1"!
0I
0\
0#!
1I
1\
1Q
0J
0Q
1J
0R
0}
1R
1}
1S
0S
#60000
0!
0D
0E
1:
#60500
1!
1D
1E
0:
1z!
1$!
1F
0A
1#!
#61000
0!
0D
0E
1:
#61500
1!
1D
1E
0:
1y!
0z!
0G
0#!
0F
1A
1H
0"!
1G
1#!
0I
0\
0H
1"!
1Q
0J
1I
1\
0R
0}
0Q
1J
1S
1R
1}
0S
#62000
0!
0D
0E
1:
#62500
1!
1D
1E
0:
1z!
1F
0A
0G
0#!
1H
0"!
0I
0\
1Q
0J
0R
0}
1S
#63000
0!
0D
0E
1:
#63500
1!
1D
1E
0:
0y!
0x!
0u!
0w!
1t!
0v!
0z!
0$!
1G
1#!
0C
1]
0H
1"!
1R
1}
1%!
1I
1\
1T
0S
0Q
1J
0F
1A
0%!
0"!
0\
0T
1S
0J
1N
0}
0#!
0N
#64000
0!
0D
0E
1:
#64500
1!
1D
1E
0:
1z!
1F
0A
1#!
#65000
0!
0D
0E
1:
#65500
1!
1D
1E
0:
1y!
0z!
0G
0#!
0F
1A
1"!
1G
1#!
0"!
#66000
0!
0D
0E
1:
#66500
1!
1D
1E
0:
1z!
1F
0A
0G
0#!
1"!
#67000
0!
0D
0E
1:
#67500
1!
1D
1E
0:
0y!
1x!
0z!
1G
1#!
1H
0"!
0F
1A
0H
1"!
1\
0#!
0\
#68000
0!
0D
0E
1:
#68500
1!
1D
1E
0:
1z!
1$!
1C
1F
0A
1%!
1#!
#69000
0!
0D
0E
1:
#69500
1!
1D
1E
0:
1y!
0z!
0G
0#!
0F
1A
1H
0"!
1G
1#!
1\
0H
1"!
0\
#70000
0!
0D
0E
1:
#70500
1!
1D
1E
0:
1z!
1F
0A
0G
0#!
1H
0"!
1\
#71000
0!
0D
0E
1:
#71500
1!
1D
1E
0:
0y!
0x!
1w!
0z!
0$!
1G
1#!
0H
1"!
0I
0\
0F
1A
0"!
1I
1\
1J
0#!
0J
#72000
0!
0D
0E
1:
#72500
1!
1D
1E
0:
1z!
1F
0A
1#!
#73000
0!
0D
0E
1:
#73500
1!
1D
1E
0:
1y!
0z!
0G
0#!
0F
1A
1"!
1G
1#!
0"!
#74000
0!
0D
0E
1:
#74500
1!
1D
1E
0:
1z!
1F
0A
0G
0#!
1"!
#75000
0!
0D
0E
1:
#75500
1!
1D
1E
0:
0y!
1x!
0z!
1G
1#!
0]
1H
0"!
0F
1A
0H
1"!
0I
0\
0#!
1I
1\
1J
0J
#76000
0!
0D
0E
1:
#76500
1!
1D
1E
0:
1z!
1$!
1F
0A
1#!
#77000
0!
0D
0E
1:
#77500
1!
1D
1E
0:
1y!
0z!
0G
0#!
0F
1A
1H
0"!
1G
1#!
0I
0\
0H
1"!
1J
1I
1\
0J
#78000
0!
0D
0E
1:
#78500
1!
1D
1E
0:
1z!
1F
0A
0G
0#!
1H
0"!
0I
0\
1J
#79000
0!
0D
0E
1:
#79500
1!
1D
1E
0:
0y!
0x!
0w!
1v!
0z!
0$!
1G
1#!
0C
0H
1"!
1I
1\
1Q
0J
0F
1A
0"!
0\
0Q
1J
1}
0#!
0}
#80000
0!
0D
0E
1:
#80500
1!
1D
1E
0:
1z!
1F
0A
1#!
#81000
0!
0D
0E
1:
#81500
1!
1D
1E
0:
1y!
0z!
0G
0#!
0F
1A
1"!
1G
1#!
0"!
#82000
0!
0D
0E
1:
#82500
1!
1D
1E
0:
1z!
1F
0A
0G
0#!
1"!
#83000
0!
0D
0E
1:
#83500
1!
1D
1E
0:
0y!
1x!
0z!
1G
1#!
1H
0"!
0F
1A
0H
1"!
1\
0#!
0\
#84000
0!
0D
0E
1:
#84500
1!
1D
1E
0:
1z!
1$!
1C
1F
0A
1#!
#85000
0!
0D
0E
1:
#85500
1!
1D
1E
0:
1y!
0z!
0G
0#!
0F
1A
1H
0"!
1G
1#!
1\
0H
1"!
0\
#86000
0!
0D
0E
1:
#86500
1!
1D
1E
0:
1z!
1F
0A
0G
0#!
1H
0"!
1\
#87000
0!
0D
0E
1:
#87500
1!
1D
1E
0:
0y!
0x!
1w!
0z!
0$!
1G
1#!
0H
1"!
0I
0\
0F
1A
0"!
1I
1\
1Q
0J
0#!
0Q
1J
1}
0}
#88000
0!
0D
0E
1:
#88500
1!
1D
1E
0:
1z!
1F
0A
1#!
#89000
0!
0D
0E
1:
#89500
1!
1D
1E
0:
1y!
0z!
0G
0#!
0F
1A
1"!
1G
1#!
0"!
#90000
0!
0D
0E
1:
#90500
1!
1D
1E
0:
1z!
1F
0A
0G
0#!
1"!
#91000
0!
0D
0E
1:
#91500
1!
1D
1E
0:
0y!
1x!
0z!
1G
1#!
1H
0"!
0F
1A
0H
1"!
0I
0\
0#!
1I
1\
1Q
0J
0Q
1J
1}
0}
#92000
0!
0D
0E
1:
#92500
1!
1D
1E
0:
1z!
1$!
1F
0A
1#!
#93000
0!
0D
0E
1:
#93500
1!
1D
1E
0:
1y!
0z!
0G
0#!
0F
1A
1H
0"!
1G
1#!
0I
0\
0H
1"!
1Q
0J
1I
1\
1}
0Q
1J
0}
#94000
0!
0D
0E
1:
#94500
1!
1D
1E
0:
1z!
1F
0A
0G
0#!
1H
0"!
0I
0\
1Q
0J
1}
#95000
0!
0D
0E
1:
#95500
1!
1D
1E
0:
0y!
0x!
1u!
0w!
0v!
0z!
0$!
1G
1#!
0C
1]
0H
1"!
1~
1^
0R
0}
1I
1\
0Q
1J
0F
1A
0%!
0"!
0^
0\
1T
0S
0J
1R
1}
0#!
1N
0T
1S
0N
#96000
0!
0D
0E
1:
#96500
1!
1D
1E
0:
1z!
1F
0A
1#!
#97000
0!
0D
0E
1:
#97500
1!
1D
1E
0:
1y!
0z!
0G
0#!
0F
1A
1"!
1G
1#!
0"!
#98000
0!
0D
0E
1:
#98500
1!
1D
1E
0:
1z!
1F
0A
0G
0#!
1"!
#99000
0!
0D
0E
1:
#99500
1!
1D
1E
0:
0y!
1x!
0z!
1G
1#!
1H
0"!
0F
1A
0H
1"!
1\
0#!
0\
#100000
0!
0D
0E
1:
#100500
1!
1D
1E
0:
1z!
1$!
1C
1F
0A
1%!
1!!
1#!
#101000
0!
0D
0E
1:
#101500
1!
1D
1E
0:
1y!
0z!
0G
0#!
0F
1A
1H
0"!
1G
1#!
1\
0H
1"!
0\
#102000
0!
0D
0E
1:
#102500
1!
1D
1E
0:
1z!
1F
0A
0G
0#!
1H
0"!
1\
#103000
0!
0D
0E
1:
#103500
1!
1D
1E
0:
0y!
0x!
1w!
0z!
0$!
1G
1#!
0H
1"!
0I
0\
0F
1A
0"!
1I
1\
1J
0#!
0J
#104000
0!
0D
0E
1:
#104500
1!
1D
1E
0:
1z!
1F
0A
1#!
#105000
0!
0D
0E
1:
#105500
1!
1D
1E
0:
1y!
0z!
0G
0#!
0F
1A
1"!
1G
1#!
0"!
#106000
0!
0D
0E
1:
#106500
1!
1D
1E
0:
1z!
1F
0A
0G
0#!
1"!
#107000
0!
0D
0E
1:
#107500
1!
1D
1E
0:
0y!
1x!
0z!
1G
1#!
0]
1H
0"!
0F
1A
0H
1"!
1^
0I
0\
0#!
1I
1\
1J
0J
#108000
0!
0D
0E
1:
#108500
1!
1D
1E
0:
1_
1z!
1$!
1F
0A
08
1#!
#109000
0!
0D
0E
1:
#109500
1!
1D
1E
0:
1y!
0z!
0G
0#!
0F
1A
1H
0"!
1G
1#!
0I
0\
0H
1"!
1J
1I
1\
0J
#110000
0!
0D
0E
1:
#110500
1!
1D
1E
0:
1z!
1F
0A
0G
0#!
1H
0"!
0I
0\
1J
#111000
0!
0D
0E
1:
#111500
1!
1D
1E
0:
0y!
0x!
0w!
1v!
0z!
0$!
1G
1#!
0C
0H
1"!
1I
1\
1Q
0J
0F
1A
0"!
0\
0Q
1J
0R
0}
0#!
1R
1}
1T
0S
0T
1S
1N
0N
#112000
0!
0D
0E
1:
#112500
1!
1D
1E
0:
1z!
1F
0A
1#!
#113000
0!
0D
0E
1:
#113500
1!
1D
1E
0:
1y!
0z!
0G
0#!
0F
1A
1"!
1G
1#!
0"!
#114000
0!
0D
0E
1:
#114500
1!
1D
1E
0:
1z!
1F
0A
0G
0#!
1"!
#115000
0!
0D
0E
1:
#115500
1!
1D
1E
0:
0y!
1x!
0z!
1G
1#!
1H
0"!
0F
1A
0H
1"!
1\
0#!
0\
#116000
0!
0D
0E
1:
#116500
1!
1D
1E
0:
1z!
1$!
1C
1F
0A
1#!
#117000
0!
0D
0E
1:
#117500
1!
1D
1E
0:
1y!
0z!
0G
0#!
0F
1A
1H
0"!
1G
1#!
1\
0H
1"!
0\
#118000
0!
0D
0E
1:
#118500
1!
1D
1E
0:
1z!
1F
0A
0G
0#!
1H
0"!
1\
#119000
0!
0D
0E
1:
#119500
1!
1D
1E
0:
0y!
0x!
1w!
0z!
0$!
1G
1#!
0H
1"!
0I
0\
0F
1A
0"!
1I
1\
1Q
0J
0#!
0Q
1J
0R
0}
1R
1}
1T
0S
0T
1S
1N
0N
#120000
0!
0D
0E
1:
#120500
1!
1D
1E
0:
1z!
1F
0A
1#!
#121000
0!
0D
0E
1:
#121500
1!
1D
1E
0:
1y!
0z!
0G
0#!
0F
1A
1"!
1G
1#!
0"!
#122000
0!
0D
0E
1:
#122500
1!
1D
1E
0:
1z!
1F
0A
0G
0#!
1"!
#123000
0!
0D
0E
1:
#123500
1!
1D
1E
0:
0y!
1x!
0z!
1G
1#!
1H
0"!
0F
1A
0H
1"!
0I
0\
0#!
1I
1\
1Q
0J
0Q
1J
0R
0}
1R
1}
1T
0S
0T
1S
1N
0N
#124000
0!
0D
0E
1:
#124500
1!
1D
1E
0:
1z!
1$!
1F
0A
1#!
#125000
0!
0D
0E
1:
#125500
1!
1D
1E
0:
1y!
0z!
0G
0#!
0F
1A
1H
0"!
1G
1#!
0I
0\
0H
1"!
1Q
0J
1I
1\
0R
0}
0Q
1J
1T
0S
1R
1}
1N
0T
1S
0N
#126000
0!
0D
0E
1:
#126500
1!
1D
1E
0:
1z!
1F
0A
0G
0#!
1H
0"!
0I
0\
1Q
0J
0R
0}
1T
0S
1N
#127000
0!
0D
0E
1:
#127500
1!
1D
1E
0:
0y!
0x!
0u!
0w!
0t!
0v!
1s!
0z!
0$!
1G
1#!
0C
1]
0H
1"!
0~
0^
1R
1}
1M
0%!
1I
1\
0T
1S
0Q
1J
0[
0O
0U
0N
0F
1A
0"!
1^
0\
0S
0J
1U
1N
0}
1V
0#!
0V
#128000
0!
0D
0E
1:
#128500
1!
1D
1E
0:
1z!
1F
0A
1#!
#129000
0!
0D
0E
1:
#129500
1!
1D
1E
0:
1y!
0z!
0G
0#!
0F
1A
1"!
1G
1#!
0"!
#130000
0!
0D
0E
1:
#130500
1!
1D
1E
0:
1z!
1F
0A
0G
0#!
1"!
#131000
0!
0D
0E
1:
#131500
1!
1D
1E
0:
0y!
1x!
0z!
1G
1#!
1H
0"!
0F
1A
0H
1"!
1\
0#!
0\
#132000
0!
0D
0E
1:
#132500
1!
1D
1E
0:
1z!
1$!
1C
1F
0A
1#!
#133000
0!
0D
0E
1:
#133500
1!
1D
1E
0:
1y!
0z!
0G
0#!
0F
1A
1H
0"!
1G
1#!
1\
0H
1"!
0\
#134000
0!
0D
0E
1:
#134500
1!
1D
1E
0:
1z!
1F
0A
0G
0#!
1H
0"!
1\
#135000
0!
0D
0E
1:
#135500
1!
1D
1E
0:
0y!
0x!
1w!
0z!
0$!
1G
1#!
0H
1"!
0I
0\
0F
1A
0"!
1I
1\
1J
0#!
0J
#136000
0!
0D
0E
1:
#136500
1!
1D
1E
0:
1z!
1F
0A
1#!
#137000
0!
0D
0E
1:
